<svg width="600" height="570" viewBox="0 0 600 570" fill="none" xmlns="http://www.w3.org/2000/svg">
<path d="M308.06 191C297.3 189.84 286.5 189 275.79 187.44C267.99 186.31 265.03 180.44 267.73 172.97C271.59 162.29 285.2 157.8 294.66 163.97C295.172 164.253 295.741 164.421 296.325 164.46C296.909 164.5 297.494 164.411 298.04 164.2C305.47 160.47 312.7 159.44 319.95 164.69C320.63 165.19 322.18 164.86 323.19 164.5C333.31 160.89 344.3 166.93 345.66 177.09C345.934 179.443 345.311 181.813 343.916 183.727C342.52 185.642 340.454 186.96 338.13 187.42C331.844 188.599 325.503 189.461 319.13 190C315.467 190.21 311.796 190.233 308.13 190.07L308.06 191ZM299.74 170C300.31 171.62 301.21 173.24 301.36 174.93C301.45 175.93 300.53 177.93 299.85 178.02C298.77 178.17 297.47 177.21 296.37 176.55C296 176.32 295.97 175.55 295.77 175.03C292.2 165.56 282.43 163.54 275.43 170.85C273.09 173.28 271.18 176.42 272.74 179.48C273.62 181.21 276.74 182.31 279.03 182.72C293.28 185.24 307.67 185.34 322.03 184.49C326.98 184.19 331.89 183.25 336.81 182.49C340.11 181.99 340.76 179.86 340.08 176.88C338.65 170.61 330.65 167.05 324.79 170.21C325.746 172.057 326.52 173.993 327.1 175.99C327.136 176.594 327.02 177.197 326.761 177.744C326.502 178.291 326.11 178.764 325.62 179.12C324.81 179.48 323.19 178.73 322.34 178C321.49 177.27 321.43 176 320.95 175C316.71 166 307.9 163.88 299.74 170Z" fill="#F9F9F9"/>
<path d="M302.32 136.77C302.861 135.038 303.571 133.363 304.44 131.77C305.79 129.77 306.35 127.86 305.07 125.63C304.07 123.98 304.07 122.05 306.02 121.54C307.12 121.26 309.21 122.3 309.89 123.37C312.09 126.84 311.83 130.55 309.47 133.93C308.26 135.65 307.93 137.07 309.11 139.05C309.62 139.91 308.86 141.53 308.68 142.8C307.33 142.49 305.51 142.62 304.74 141.8C303.57 140.49 303.12 138.54 302.32 136.77Z" fill="#F9F9F9"/>
<path d="M323.16 136.63C322.534 138.615 321.751 140.548 320.82 142.41C319.82 144.09 319.49 145.41 320.41 147.28C320.9 148.28 320.18 149.91 320.01 151.28C318.61 150.86 316.75 150.86 315.9 149.94C313.54 147.39 313.49 143.63 315.68 140.44C317.22 138.19 317.58 136.24 316.39 133.7C315.96 132.79 316.89 131.24 317.2 129.98C318.51 130.41 320.32 130.45 321.03 131.35C322.11 132.71 322.43 134.69 323.16 136.63Z" fill="#F9F9F9"/>
<path d="M289.45 142.93C290.307 141.215 291.029 139.437 291.61 137.61C292.196 135.743 292.354 133.767 292.07 131.83C291.65 130.02 291.18 128.26 293.07 127.71C293.806 127.656 294.545 127.782 295.221 128.079C295.897 128.375 296.491 128.832 296.95 129.41C297.978 130.934 298.514 132.736 298.487 134.574C298.46 136.411 297.872 138.197 296.8 139.69C295.51 141.63 294.93 143.19 296.36 145.38C296.84 146.12 296.36 148.46 295.76 148.71C294.76 149.13 292.76 148.93 292.11 148.18C290.91 146.79 290.35 144.81 289.45 142.93Z" fill="#F9F9F9"/>
<path d="M398.32 89.4699C398.76 89.1299 399.2 88.8099 399.63 88.4699C405.03 84.1199 409.52 78.9799 411.2 72.0399C413.2 63.6099 407.35 57.2499 398.91 59.0399C395.58 59.7299 391.82 60.8099 389.37 62.9699C381.312 69.8445 373.678 77.2014 366.51 84.9999C360.19 92.1099 352.51 94.4899 344.32 94.9399L360.23 86.5499L360 83.9999L330.24 75.9999C340.6 73.9999 350.12 77.3499 360.33 79.3099C361.95 60.9399 360.16 43.8499 348.93 28.7799C343.06 20.9199 337.14 13.0999 331.47 5.09992C327.32 -0.730085 327.59 -0.620085 321.03 2.73991C318.18 4.20991 314.78 4.73991 311.55 5.30991C309.38 5.68991 307.08 5.37991 304.28 5.37991C307.63 14.5899 315.85 17.3099 323.41 22.1699C316.07 21.9899 311.02 19.2299 306.51 15.4099C301.44 11.1099 296.57 6.57991 291.59 2.16991C289.09 -0.0400928 287.09 0.169912 285.07 3.04991C279.59 10.9899 273.91 18.7899 268.33 26.6499C256.79 42.8799 256.72 61.4599 256.97 80.6499C261.09 79.5799 264.71 78.4699 268.4 77.7299C271.983 76.9892 275.611 76.4814 279.26 76.2099C282.89 75.9499 286.54 76.1499 290.19 76.1499C278.87 77.2599 268.19 79.9199 257.96 85.7599C262.82 92.0299 269.75 93.1699 276.38 94.9899C269.88 95.5412 263.408 93.6477 258.23 89.6799C251.34 84.5299 245.23 78.3299 238.67 72.7399C233.13 68.0299 227.82 62.8399 221.67 59.1799C215.15 55.3299 207.67 56.9499 204.29 61.3099C200.91 65.6699 201.79 72.1099 206.9 78.1899C212.996 85.5666 220.511 91.6435 229 96.0599C243.59 98.5499 257.79 103.49 272.62 104.75C273.413 104.802 274.183 105.042 274.864 105.451C275.546 105.859 276.121 106.425 276.54 107.1L277.18 107.17C298.78 109.3 320.46 110.47 342.09 108.25C359.63 99.5199 378.56 91.0699 398.32 89.4699Z" fill="#F9F9F9"/>
<path d="M164.5 215C159.62 209.853 153.103 206.753 144.95 205.7C136.052 204.669 127.045 205.108 118.29 207C117.913 208.386 117.387 209.728 116.72 211C115.748 212.855 114.593 214.607 113.27 216.23C105.591 226.496 98.5386 237.215 92.15 248.33C85.6033 259.663 79.54 271.13 73.96 282.73C77.86 282.73 81.7 282.66 85.46 282.52C89.22 282.38 93.16 282.06 97.28 281.58C101.4 281.1 105.81 280.36 110.55 279.38C115.29 278.4 120.73 277.15 126.86 275.62C128.54 275.2 129.72 275.44 130.42 276.35C130.772 276.843 131.011 277.408 131.12 278.005C131.229 278.601 131.205 279.214 131.05 279.8C130.685 281.353 129.842 282.752 128.64 283.8C127.018 285.193 125.015 286.068 122.89 286.31L68.31 294.88C64.9766 302.547 61.9466 310.077 59.22 317.47C56.4933 324.863 54.0866 331.887 52 338.54C51.0601 342.081 49.466 345.415 47.3 348.37C45.7608 350.581 43.7618 352.433 41.44 353.8C39.56 354.78 38.0633 354.78 36.95 353.8C35.8366 352.82 35.5566 350.66 36.11 347.32C37.79 338.12 39.7433 329.373 41.97 321.08C44.1966 312.787 46.7033 304.873 49.49 297.34L40.08 298.34C37.29 298.62 35.87 297.82 35.8 295.93C35.8776 293.618 36.6825 291.389 38.1 289.56C39.873 287.028 42.1507 284.889 44.79 283.28C47.5433 281.492 50.8465 280.75 54.1 281.19C54.3122 281.18 54.524 281.218 54.72 281.3C54.9201 281.379 55.1352 281.413 55.35 281.4C60.5896 268.731 66.5597 256.377 73.23 244.4C79.29 233.667 84.5533 224.537 89.02 217.01L89.64 215.96C81.5223 219.391 73.662 223.401 66.12 227.96C59.2509 232.066 52.744 236.75 46.67 241.96C41.7326 246.12 37.4599 251.009 34 256.46C31.0666 261.267 30.02 265.623 30.86 269.53C25.7 262.697 23.5766 255.9 24.49 249.14C25.4033 242.38 28.3633 235.97 33.37 229.91C39.017 223.31 45.6889 217.661 53.13 213.18C69.948 202.78 88.628 195.749 108.13 192.48C116.891 190.887 125.834 190.55 134.69 191.48C142.69 192.46 149.413 194.793 154.86 198.48C160.307 202.167 163.52 207.673 164.5 215Z" fill="#F9F9F9"/>
<path d="M176 306.33C177.272 304.606 178.873 303.151 180.71 302.05C181.754 301.356 183.027 301.094 184.26 301.32C185.17 301.6 185.62 302.32 185.62 303.62C185.62 304.92 184.92 306.62 183.53 308.84C181.275 312.173 178.757 315.32 176 318.25C172.176 322.503 168.13 326.552 163.88 330.38C159.615 334.275 155.032 337.807 150.18 340.94C145.513 343.94 141.437 345.44 137.95 345.44C135.283 345.44 133.783 343.21 133.45 338.75C133.117 334.29 133.92 328.853 135.86 322.44C132.933 325.773 129.863 329.013 126.65 332.16C123.754 335.032 120.681 337.721 117.45 340.21C114.907 342.202 112.134 343.881 109.19 345.21C106.61 346.317 104.487 346.457 102.82 345.63C100.73 344.63 99.4001 342.32 98.8201 338.63C98.2877 334.244 98.4293 329.803 99.2401 325.46C100.264 319.774 101.859 314.206 104 308.84C106.356 302.738 109.258 296.861 112.67 291.28C115.853 286.151 119.495 281.321 123.55 276.85C127.331 272.617 131.612 268.859 136.3 265.66C140.456 262.81 145.05 260.658 149.9 259.29C154.21 258.027 158.801 258.096 163.07 259.49C166.83 260.75 169.34 262.877 170.6 265.87C171.832 268.597 172.055 271.673 171.23 274.55C170.397 277.33 168.667 279.757 166.31 281.45C163.87 283.257 160.907 283.677 157.42 282.71C157.701 280.978 157.701 279.212 157.42 277.48C157.282 276.734 156.933 276.042 156.416 275.486C155.899 274.93 155.235 274.532 154.5 274.34C152.232 273.654 149.798 273.764 147.6 274.65C144.869 275.681 142.297 277.091 139.96 278.84C137.217 280.868 134.696 283.181 132.44 285.74C129.98 288.476 127.708 291.376 125.64 294.42C123.718 297.302 122.045 300.343 120.64 303.51C119.343 306.379 118.293 309.353 117.5 312.4C116.861 314.716 116.545 317.108 116.56 319.51C116.63 321.51 117.22 322.72 118.34 323.27C119.46 323.82 121.34 323.48 123.46 322.27C126.04 320.699 128.459 318.877 130.68 316.83C133.619 314.161 136.41 311.334 139.04 308.36C141.967 305.087 144.757 301.777 147.41 298.43C148.24 297.31 149.08 296.2 149.92 295.08C150.76 293.96 151.66 292.85 152.63 291.74C153.325 291.214 154.168 290.92 155.04 290.9C156.289 290.76 157.551 290.76 158.8 290.9C159.974 291.01 161.132 291.255 162.25 291.63C163.25 291.98 163.64 292.3 163.51 292.57C161.97 295.237 160.4 298.167 158.8 301.36C157.2 304.56 155.8 307.6 154.62 310.45C153.573 312.895 152.7 315.411 152.01 317.98C151.45 320.14 151.45 321.57 152.01 322.27C152.7 322.97 154.01 322.93 156.01 322.16C158.338 321.193 160.549 319.966 162.6 318.5C165.155 316.735 167.6 314.815 169.92 312.75C172.126 310.787 174.16 308.639 176 306.33Z" fill="#F9F9F9"/>
<path d="M229.74 306.33C231.009 304.604 232.61 303.148 234.45 302.05C235.494 301.356 236.767 301.094 238 301.32C238.91 301.6 239.36 302.32 239.36 303.62C239.36 304.92 238.66 306.62 237.27 308.84C235.015 312.173 232.497 315.32 229.74 318.25C225.912 322.503 221.863 326.552 217.61 330.38C213.35 334.277 208.771 337.809 203.92 340.94C199.253 343.94 195.177 345.44 191.69 345.44C188.483 345.44 186.32 343.557 185.2 339.79C184.08 336.023 184.36 331.023 186.04 324.79C187.707 318.51 190.877 311.26 195.55 303.04C201.032 293.715 207.521 285.02 214.9 277.11C213.101 277.389 211.275 277.46 209.46 277.32C207.56 277.167 205.672 276.887 203.81 276.48C201.437 281.08 198.51 286.31 195.03 292.17C191.566 297.988 187.724 303.574 183.53 308.89C181.44 311.54 179.62 313.18 178.09 313.81C176.56 314.44 175.41 314.47 174.64 313.91C174.233 313.552 173.931 313.091 173.766 312.575C173.6 312.059 173.578 311.508 173.7 310.98C174.003 309.256 174.802 307.657 176 306.38C180.577 300.953 184.736 295.187 188.44 289.13C191.86 283.49 194.613 278.507 196.7 274.18C192.8 272.093 190.64 269.237 190.22 265.61C189.775 262.044 190.394 258.425 192 255.21C193.549 251.991 195.931 249.246 198.9 247.26C201.9 245.26 204.863 244.807 207.79 245.9C209.583 246.385 211.141 247.5 212.18 249.04C213.02 250.462 213.453 252.088 213.43 253.74C213.413 255.633 213.075 257.51 212.43 259.29C211.733 261.229 210.894 263.114 209.92 264.93C210.321 265.411 210.814 265.807 211.371 266.093C211.927 266.38 212.536 266.552 213.16 266.6C214.552 266.74 215.956 266.707 217.34 266.5C218.811 266.289 220.251 265.903 221.63 265.35C223.02 264.79 224.14 264.3 224.97 263.89C225.626 263.793 226.294 263.939 226.85 264.3C227.727 264.747 228.538 265.312 229.26 265.98C229.967 266.61 230.568 267.349 231.04 268.17C231.46 268.94 231.46 269.53 231.04 269.95C228.74 272.316 226.639 274.868 224.76 277.58C222.527 280.72 220.333 284.1 218.18 287.72C216.027 291.34 214.027 295.007 212.18 298.72C210.36 302.42 208.827 305.87 207.58 309.07C206.473 311.772 205.633 314.575 205.07 317.44C204.65 319.807 204.86 321.41 205.7 322.25C206.367 322.917 207.7 322.88 209.7 322.14C212.025 321.173 214.232 319.945 216.28 318.48C218.839 316.72 221.284 314.799 223.6 312.73C225.828 310.778 227.882 308.637 229.74 306.33Z" fill="#F9F9F9"/>
<path d="M392.63 214.12C394.177 210.371 396.845 207.192 400.27 205.02C403.28 203.022 406.654 201.635 410.2 200.94C413.41 200.39 416.02 200.56 418.04 201.47C420.06 202.38 420.51 203.87 419.4 205.96C414.94 214.053 409.19 223.43 402.15 234.09C395.11 244.75 387.373 255.72 378.94 267C370.5 278.333 361.717 289.333 352.59 300C344.285 309.776 335.406 319.049 326 327.77C317.433 335.65 309.49 341.573 302.17 345.54C294.85 349.507 288.82 350.45 284.08 348.37C279.9 346.55 277.39 342.157 276.55 335.19C269.723 340.77 263.45 344.813 257.73 347.32C252.01 349.827 247.13 350.16 243.09 348.32C239.19 346.64 236.75 342.7 235.77 336.5C234.79 330.3 235.2 322.86 237 314.18C239.046 304.45 241.985 294.93 245.78 285.74C249.99 275.298 255.134 265.257 261.15 255.74C267.28 245.983 274.43 236.905 282.48 228.66C290.131 220.689 299.027 214.015 308.82 208.9C312.472 206.997 316.287 205.424 320.22 204.2C322.471 203.422 324.838 203.034 327.22 203.05C328.76 203.19 329.45 203.71 329.32 204.61C329.19 205.51 327.99 206.67 325.76 208.06C320.013 211.687 314.093 217 308 224C301.62 231.278 295.718 238.961 290.33 247C284.683 255.36 279.453 264.003 274.64 272.93C270.248 280.965 266.306 289.238 262.83 297.71C260.14 304.017 258.174 310.609 256.97 317.36C256.14 322.87 256.76 326.36 258.86 327.71C260.533 328.83 262.937 328.693 266.07 327.3C270.045 325.359 273.744 322.897 277.07 319.98C278.224 311.295 280.365 302.77 283.45 294.57C286.787 285.43 290.733 276.523 295.26 267.91C299.74 259.321 304.844 251.073 310.53 243.23C315.507 236.26 321.103 229.754 327.25 223.79C332.83 218.457 338.2 214.727 343.36 212.6C348.52 210.473 353.05 210.577 356.95 212.91C358.783 213.917 360.309 215.401 361.366 217.206C362.422 219.011 362.97 221.069 362.95 223.16C363.017 227.62 361.727 232.71 359.08 238.43C355.97 244.911 352.289 251.102 348.08 256.93C343.413 263.55 338.257 270.217 332.61 276.93C326.963 283.643 321.143 290.23 315.15 296.69C309.15 303.17 303.573 309.13 298.42 314.57C297.767 317.343 297.521 320.196 297.69 323.04C297.89 325.34 298.63 326.91 299.88 327.74C301.967 329.28 305.207 328.723 309.6 326.07C315.046 322.586 320.095 318.518 324.66 313.94C331.04 307.647 337.05 300.989 342.66 294C349.073 286.187 355.38 277.82 361.58 268.9C367.78 259.98 373.587 250.817 379 241.41C384.143 232.625 388.696 223.509 392.63 214.12ZM351.23 227.71C350.23 227.15 348.75 227.71 346.74 229.28C344.157 231.427 341.777 233.807 339.63 236.39C336.91 239.517 334.017 243.247 330.95 247.58C327.883 251.913 324.85 256.513 321.85 261.38C318.85 266.26 316.027 271.207 313.38 276.22C310.921 280.818 308.757 285.568 306.9 290.44C310.293 287.316 313.505 284 316.52 280.51C320 276.51 323.553 272.327 327.18 267.96C330.807 263.593 334.26 259.133 337.54 254.58C340.807 250.053 343.627 245.907 346 242.14C347.969 239.135 349.644 235.947 351 232.62C351.993 230.053 352.07 228.417 351.23 227.71Z" fill="#F9F9F9"/>
<path d="M430.48 306.33C431.562 304.571 432.983 303.045 434.66 301.84C435.152 301.438 435.724 301.146 436.338 300.984C436.952 300.822 437.594 300.793 438.22 300.9C439.22 301.18 439.71 301.98 439.79 303.3C439.87 304.62 439.26 306.47 438.01 308.84C437.17 310.38 435.74 312.64 433.72 315.64C431.447 318.97 429.004 322.181 426.4 325.26C423.396 328.829 420.109 332.15 416.57 335.19C412.962 338.346 408.958 341.018 404.66 343.14C400.467 345.21 395.927 346.485 391.27 346.9C386.254 347.26 381.234 346.258 376.74 344C372.779 342.137 369.703 338.8 368.17 334.7C366.436 330.064 365.723 325.107 366.08 320.17C366.447 314.288 367.608 308.482 369.53 302.91C371.522 296.897 374.15 291.115 377.37 285.66C380.373 280.564 383.938 275.821 388 271.52C391.666 267.563 395.936 264.212 400.65 261.59C404.74 259.298 409.315 258.006 414 257.82C418.59 257.739 423.073 259.212 426.72 262C429.566 263.998 431.749 266.802 432.99 270.05C434.247 273.398 434.429 277.054 433.51 280.51C432.364 284.64 430.21 288.42 427.24 291.51C423.96 295.13 419.323 298.407 413.33 301.34C410.742 302.57 408.001 303.448 405.18 303.95C402.554 304.423 399.897 304.704 397.23 304.79C394.892 304.866 392.551 304.759 390.23 304.47C388.06 304.19 386.23 303.92 384.69 303.64C384.27 305.873 383.85 308.277 383.43 310.85C383.021 313.302 382.81 315.784 382.8 318.27C382.771 320.433 383.088 322.587 383.74 324.65C384.008 325.53 384.454 326.346 385.049 327.048C385.644 327.749 386.376 328.322 387.2 328.73C389.05 329.702 391.079 330.287 393.163 330.448C395.247 330.61 397.342 330.345 399.32 329.67C403.883 328.298 408.217 326.255 412.18 323.61C416.206 320.96 419.954 317.911 423.37 314.51C425.986 312.008 428.367 309.27 430.48 306.33ZM415.21 275.18C414.293 274.542 413.246 274.117 412.144 273.936C411.042 273.754 409.913 273.82 408.84 274.13C405.943 274.825 403.22 276.108 400.84 277.9C397.891 280.079 395.283 282.684 393.1 285.63C390.661 288.846 388.787 292.455 387.56 296.3C388.947 296.44 391.003 296.51 393.73 296.51C397.218 296.343 400.651 295.564 403.87 294.21C407.123 293.045 410.163 291.356 412.87 289.21C414.689 287.743 416.153 285.883 417.15 283.77C417.897 282.211 418.046 280.432 417.57 278.77C417.187 277.352 416.36 276.094 415.21 275.18Z" fill="#F9F9F9"/>
<path d="M486.73 306.33C488.031 304.559 489.708 303.097 491.64 302.05C493.24 301.28 494.5 301.05 495.41 301.42C495.869 301.618 496.25 301.961 496.495 302.396C496.741 302.831 496.837 303.335 496.77 303.83C496.77 305.083 496 306.75 494.46 308.83C490.56 313.99 486.227 319.183 481.46 324.41C476.97 329.411 472.036 333.997 466.72 338.11C462.025 341.789 456.807 344.748 451.24 346.89C446.479 348.822 441.196 349.045 436.29 347.52C431.27 345.98 428.063 343.713 426.67 340.72C425.989 339.351 425.592 337.859 425.503 336.333C425.414 334.807 425.634 333.279 426.15 331.84C427.243 328.854 429.165 326.242 431.69 324.31C432.872 323.315 434.237 322.563 435.71 322.097C437.182 321.63 438.731 321.458 440.27 321.59C439.572 323.126 439.316 324.826 439.53 326.5C439.737 328.253 440.887 329.683 442.98 330.79C444.213 331.42 445.572 331.766 446.956 331.803C448.341 331.839 449.716 331.565 450.98 331C453.91 329.88 456.63 327.38 459.14 323.47C460.715 320.836 461.777 317.929 462.27 314.9C462.832 311.655 462.973 308.351 462.69 305.07C462.403 301.695 461.732 298.363 460.69 295.14C459.763 292.133 458.541 289.225 457.04 286.46C453.833 290.086 450.627 293.78 447.42 297.54C444.213 301.3 441.073 305.067 438 308.84C435.913 311.507 434.063 313.147 432.45 313.76C430.85 314.38 429.67 314.42 428.9 313.86C428.13 313.3 427.9 312.33 428.06 310.93C428.44 309.21 429.272 307.622 430.47 306.33C434.37 301.597 438.273 296.963 442.18 292.43C446.087 287.896 449.78 283.68 453.26 279.78C451.869 276.119 451.795 272.089 453.05 268.38C454.278 264.463 456.229 260.81 458.8 257.61C461.17 254.583 464.122 252.061 467.48 250.19C470.693 248.45 473.55 248.067 476.05 249.04C478.423 250.02 479.4 252.46 478.98 256.36C478.56 260.26 476.613 264.807 473.14 270C476.428 278.12 478.266 286.754 478.57 295.51C478.924 303.578 477.865 311.646 475.44 319.35L480.87 313.49C482.947 311.207 484.903 308.817 486.73 306.33Z" fill="#F9F9F9"/>
<path d="M500.11 235.24C503.32 234.96 506.59 234.71 509.94 234.51C513.29 234.31 516.63 234.05 519.94 233.77C523.504 228.987 527.344 224.416 531.44 220.08C534.871 216.373 538.69 213.044 542.83 210.15C545.962 207.888 549.52 206.285 553.29 205.44C554.78 205.104 556.325 205.088 557.822 205.395C559.318 205.702 560.732 206.324 561.97 207.22C563.783 208.473 563.99 211.297 562.59 215.69C560.602 221.352 558.01 226.783 554.86 231.89L574.51 231.06C576.32 230.92 577.23 231.68 577.23 233.36C577.156 235.27 576.538 237.119 575.45 238.69C574.201 240.639 572.563 242.311 570.64 243.6C569.776 244.264 568.773 244.723 567.706 244.941C566.638 245.16 565.535 245.132 564.48 244.86L558 243.71C555.213 243.223 551.94 242.77 548.18 242.35C542.46 250.71 535.627 259.667 527.68 269.22C519.621 278.906 511.049 288.152 502 296.92C500.973 300.516 500.274 304.198 499.91 307.92C499.628 310.703 499.628 313.507 499.91 316.29C500.056 318.157 500.591 319.972 501.48 321.62C501.711 322.119 502.046 322.563 502.461 322.923C502.876 323.284 503.363 323.552 503.89 323.71C504.863 323.85 506.43 323.433 508.59 322.46C511.029 321.321 513.371 319.983 515.59 318.46C518.198 316.719 520.681 314.798 523.02 312.71C525.255 310.763 527.319 308.629 529.19 306.33C530.456 304.605 532.054 303.149 533.89 302.05C534.938 301.357 536.214 301.095 537.45 301.32C538.35 301.6 538.8 302.32 538.8 303.62C538.8 304.92 538.11 306.62 536.71 308.84C534.444 312.16 531.891 315.276 529.08 318.15C525.152 322.345 520.999 326.325 516.64 330.07C512.272 333.867 507.622 337.327 502.73 340.42C498.063 343.353 494.063 344.817 490.73 344.81C487.397 344.803 485.2 342.607 484.14 338.22C483.1 333.827 483.03 328.077 483.93 320.97C485.06 312.832 486.808 304.792 489.16 296.92C491.844 287.702 495.162 278.681 499.09 269.92C501.213 264.992 503.587 260.176 506.2 255.49C508.867 250.75 511.657 246.15 514.57 241.69L505.57 242.53C502.68 242.804 499.816 243.296 497 244C496.566 244.172 496.084 244.182 495.643 244.028C495.202 243.874 494.832 243.566 494.6 243.16C494.352 242.72 494.197 242.234 494.144 241.732C494.09 241.23 494.14 240.722 494.29 240.24C494.622 239.014 495.27 237.897 496.17 237C497.211 235.933 498.62 235.303 500.11 235.24ZM510.11 271.62C509.41 273.16 508.82 274.41 508.33 275.39L507 278.1C506.564 278.984 506.18 279.892 505.85 280.82C505.5 281.82 505.12 282.99 504.7 284.38C511.667 276.713 518 269.183 523.7 261.79C529.4 254.397 534.21 247.707 538.13 241.72C536.46 241.58 534.71 241.48 532.9 241.41C531.09 241.34 529.27 241.3 527.46 241.3C520.629 250.763 514.826 260.927 510.15 271.62H510.11ZM547 224.16C543.373 224.987 539.19 227.913 534.45 232.94C536.13 232.8 537.69 232.7 539.16 232.62C540.63 232.54 542.16 232.52 543.66 232.52C544.53 231.058 545.264 229.518 545.85 227.92C546.29 226.53 546.67 225.27 547 224.16Z" fill="#F9F9F9"/>
<path d="M542.25 321.62C544.25 376.38 527.25 430.38 491.25 473.38C483.25 482.38 475.25 490.38 467.25 499.38C465.25 501.38 462.25 503.38 460.25 505.38C450.25 510.38 442.25 517.38 433.25 524.38C379.25 562.38 316.25 571.38 253.25 557.38C250.25 556.38 248.25 555.38 245.25 554.38C212.25 546.38 182.25 530.38 156.25 508.38C155.25 507.38 153.25 507.38 152.25 506.38C140.045 496.219 129.279 484.445 120.25 471.38C112.25 460.38 105.25 452.38 99.2501 441.38C86.2501 416.38 77.2501 390.38 73.0901 362.59" stroke="#F4F4F4" stroke-width="12" stroke-miterlimit="10"/>
<path d="M381.65 104.48C403.323 111.876 423.855 122.267 442.65 135.35C461.249 148.344 477.77 164.083 491.65 182.03C499.539 192.264 506.5 203.18 512.45 214.65" stroke="#F4F4F4" stroke-width="12" stroke-miterlimit="10"/>
<path d="M124.49 178.65C151.21 146.38 184.21 120.38 223.49 106.33" stroke="#F4F4F4" stroke-width="12" stroke-miterlimit="10"/>
<path d="M201.52 379.69C203.278 379.648 204.992 380.248 206.34 381.378C207.688 382.508 208.577 384.09 208.842 385.829C209.107 387.568 208.729 389.344 207.779 390.824C206.829 392.304 205.371 393.387 203.68 393.87L208.92 399.99H206.25L201.25 394.19H197.25V400H195.25V379.7H201.49L201.52 379.69ZM197.31 392.15H201.77C202.472 392.159 203.168 392.026 203.817 391.76C204.466 391.494 205.055 391.1 205.548 390.601C206.041 390.102 206.429 389.509 206.688 388.856C206.947 388.204 207.071 387.507 207.055 386.805C207.038 386.104 206.88 385.413 206.59 384.774C206.3 384.135 205.885 383.561 205.368 383.087C204.851 382.612 204.244 382.246 203.583 382.012C202.922 381.777 202.22 381.678 201.52 381.72H197.31V392.15Z" fill="#F9F9F9"/>
<path d="M219.64 379.69H229.21V381.69H219.64V392.12H227.72V394.12H219.64V398H229.21V400H217.61V379.7L219.64 379.69Z" fill="#F9F9F9"/>
<path d="M244.66 379.66C245.997 379.655 247.321 379.918 248.554 380.433C249.787 380.948 250.904 381.705 251.84 382.66L250.4 384.08C249.65 383.32 248.756 382.716 247.771 382.305C246.785 381.893 245.728 381.68 244.66 381.68C240.9 381.68 239.51 383.9 239.51 385.88C239.456 386.486 239.565 387.095 239.827 387.644C240.09 388.193 240.495 388.661 241 389C242.182 389.714 243.488 390.199 244.85 390.43C246.346 390.678 247.818 391.052 249.25 391.55C249.927 391.799 250.534 392.207 251.02 392.74C251.527 393.337 251.804 394.096 251.8 394.88C251.764 395.658 251.529 396.414 251.118 397.076C250.706 397.738 250.132 398.283 249.45 398.66C247.95 399.538 246.237 399.984 244.5 399.95C243.164 399.952 241.841 399.687 240.608 399.172C239.375 398.657 238.258 397.902 237.32 396.95L238.76 395.53C239.51 396.29 240.404 396.893 241.389 397.305C242.375 397.717 243.432 397.93 244.5 397.93C245.857 397.951 247.194 397.606 248.37 396.93C248.766 396.742 249.104 396.452 249.35 396.09C249.596 395.728 249.741 395.307 249.77 394.87C249.782 394.723 249.764 394.575 249.716 394.435C249.667 394.296 249.591 394.168 249.49 394.06C249.207 393.776 248.866 393.558 248.49 393.42C247.16 392.987 245.799 392.653 244.42 392.42C242.787 392.149 241.226 391.55 239.83 390.66C239.076 390.113 238.467 389.389 238.058 388.552C237.648 387.716 237.45 386.791 237.48 385.86C237.48 382.86 240.03 379.63 244.66 379.63V379.66Z" fill="#F9F9F9"/>
<path d="M273.58 379.69V381.69H267.78V400H265.78V381.72H260V379.72L273.58 379.69Z" fill="#F9F9F9"/>
<path d="M286.1 382.3L293.55 400H291.34L290.06 397H279.94L278.65 400H276.45L285 379.7L286.1 382.3ZM280.79 394.91H289.2L285 384.91L280.79 394.91Z" fill="#F9F9F9"/>
<path d="M302.23 379.69V393.25C302.286 394.481 302.815 395.643 303.706 396.495C304.597 397.346 305.782 397.821 307.015 397.821C308.247 397.821 309.433 397.346 310.324 396.495C311.215 395.643 311.744 394.481 311.8 393.25V379.69H313.8V393.25C313.732 395.012 312.985 396.68 311.714 397.903C310.443 399.126 308.748 399.809 306.985 399.809C305.221 399.809 303.526 399.126 302.256 397.903C300.985 396.68 300.237 395.012 300.17 393.25V379.69H302.23Z" fill="#F9F9F9"/>
<path d="M329.32 379.69C331.078 379.648 332.792 380.248 334.14 381.378C335.488 382.508 336.378 384.09 336.642 385.829C336.907 387.568 336.529 389.344 335.579 390.824C334.629 392.304 333.171 393.387 331.48 393.87L336.72 399.99H334.05L329.05 394.19H325.05V400H323.05V379.7H329.29L329.32 379.69ZM325.11 392.15H329.57C330.272 392.159 330.968 392.026 331.617 391.76C332.266 391.494 332.855 391.1 333.348 390.601C333.841 390.102 334.229 389.509 334.488 388.856C334.747 388.204 334.871 387.507 334.855 386.805C334.838 386.104 334.68 385.413 334.39 384.774C334.1 384.135 333.685 383.561 333.168 383.087C332.651 382.612 332.044 382.246 331.383 382.012C330.722 381.777 330.02 381.678 329.32 381.72H325.11V392.15Z" fill="#F9F9F9"/>
<path d="M353.9 382.3L361.35 400H359.14L357.86 397H347.74L346.45 400H344.25L352.8 379.7L353.9 382.3ZM348.59 394.91H357L352.8 384.91L348.59 394.91Z" fill="#F9F9F9"/>
<path d="M384.16 379.69V400L382.16 397.63L371.51 385.19V400H369.51V379.7L371.51 382.07L382.16 394.51V379.69H384.16Z" fill="#F9F9F9"/>
<path d="M406.48 379.69V381.69H400.68V400H398.68V381.72H392.88V379.72L406.48 379.69Z" fill="#F9F9F9"/>
<path d="M105.35 393.73L132.76 383.21L140.33 402.93L135.33 404.84L129.75 390.3L122.26 393.17L127.54 406.93L122.76 408.77L117.5 395L107.34 398.9L105.35 393.73Z" fill="#F9F9F9"/>
<path d="M128.78 443.07L125.55 437.32L129.94 425L127.33 420.35L118.76 425.15L116.05 420.32L141.73 406C144.01 410.07 146.25 414.15 148.53 418.22C151.88 424.29 149.64 429.73 145.2 432.22C141.69 434.22 137.2 434.57 133.51 430.22L129.11 442.9L128.78 443.07ZM139.9 413.35L131.69 417.95L135.82 425.31C137.54 428.39 140.33 428.56 142.38 427.41C144.43 426.26 145.73 423.76 144.03 420.71L139.9 413.35Z" fill="#F9F9F9"/>
<path d="M145.69 465.36L132.25 447.94L155.52 429.94L169 447.39L164.74 450.68L154.66 437.61L149.3 441.75L159.03 454.35L154.94 457.5L145.21 444.9L139.93 449L150 462L145.69 465.36Z" fill="#F9F9F9"/>
<path d="M180.16 468.52C180.6 466.61 179.7 463.52 177.4 461.33C174.4 458.49 171.81 458.33 170.3 459.94C168.52 461.79 170.21 464.4 172.47 467.14C176.37 471.93 179.39 477.04 174.54 482.14C170 486.87 163.87 484.89 159.14 480.36C154.81 476.2 152.75 471.67 154.89 466.28L159.89 467.74C158.59 470.98 160.05 474.37 162.63 476.84C165.21 479.31 168.36 480.64 170.57 478.33C172.48 476.33 171.18 473.51 168.65 470.5C164.81 465.83 161.91 460.84 166.47 456.08C170.66 451.71 176.68 454.08 180.62 457.77C183.92 460.94 186.45 465.16 184.92 469.98L180.16 468.52Z" fill="#F9F9F9"/>
<path d="M191.29 505.11L198.08 495.36L186.22 487.11L179.43 496.86L174.88 493.7L191.67 469.57L196.22 472.73L189.15 482.9L201 491.15L208.08 481L212.59 484.14L195.8 508.26L191.29 505.11Z" fill="#F9F9F9"/>
<path d="M234.57 520.7L220.36 514.84L215.92 519L210.37 516.71L233.76 494.56L239.36 496.86L240.36 529.07L234.77 526.77L234.57 520.7ZM234.21 501.42L224.39 510.91L234.49 515.07L234.21 501.42Z" fill="#F9F9F9"/>
<path d="M272.13 506.43L277.54 507.66L271 536.37L267.65 535.6L257 512.86L252.62 532.19L247.2 531L253.69 502.34L258.07 503.34L268.07 524.34L272.13 506.43Z" fill="#F9F9F9"/>
<path d="M306.8 524.42C306.46 531.85 301.46 539.06 291.19 538.42L279.66 537.69L281.51 508.35L293.04 509.08C303.1 509.71 307.13 517.16 306.8 524.42ZM285.49 532.71L291.49 533.09C298.15 533.51 301.1 528.82 301.27 524.03C301.43 519.45 299.04 514.72 292.67 514.31L286.67 513.93L285.49 532.71Z" fill="#F9F9F9"/>
<path d="M347.38 520.11C348.56 527.46 345.14 535.54 334.95 537L323.52 538.65L319.34 509.54L330.78 507.9C340.75 506.47 346.22 512.94 347.38 520.11ZM328.21 532.58L334.21 531.72C340.82 530.78 342.75 525.58 341.95 520.85C341.17 516.34 337.86 512.19 331.54 513.1L325.54 513.96L328.21 532.58Z" fill="#F9F9F9"/>
<path d="M377.78 526.8L356.71 533.16L348.21 505L369.28 498.63L370.83 503.78L355 508.57L357 515.05L372.23 510.44L373.73 515.39L358.48 520L360.4 526.35L376.2 521.58L377.78 526.8Z" fill="#F9F9F9"/>
<path d="M377.86 494.93L388 517L401.73 510.67L403.88 515.33L385.13 524L372.82 497.29L377.86 494.93Z" fill="#F9F9F9"/>
<path d="M409.75 511.87L394.91 486.49L399.66 483.71L414.5 509.09L409.75 511.87Z" fill="#F9F9F9"/>
<path d="M440.3 486.68C439.958 488.711 439.216 490.654 438.115 492.395C437.015 494.136 435.578 495.64 433.89 496.82C425.09 503.29 416.89 499.97 412.35 493.82C407.81 487.67 407.16 478.4 415.72 472.11C417.335 470.917 419.171 470.056 421.121 469.579C423.071 469.102 425.097 469.017 427.08 469.33L426.21 474.4C423.59 474.078 420.947 474.796 418.85 476.4C413.14 480.6 413.8 486.68 416.75 490.62C419.7 494.56 424.95 496.94 430.75 492.62C432.958 490.97 434.456 488.543 434.94 485.83L440.3 486.68Z" fill="#F9F9F9"/>
<path d="M447 485.18L427 463.58L431 459.85L451 481.45L447 485.18Z" fill="#F9F9F9"/>
<path d="M465.62 443.74C471.37 448.74 474.17 457.18 467.49 465.07C460.81 472.96 452.05 471.8 446.15 466.81C440.25 461.82 437.52 453.02 444.09 445.26C450.66 437.5 459.81 438.71 465.62 443.74ZM449.74 462.74C453.51 465.74 459.13 467.11 463.61 461.82C468.09 456.53 465.79 451.18 462.16 448C458.53 444.82 452.41 443.27 447.93 448.56C443.45 453.85 445.88 459.59 449.74 462.7V462.74Z" fill="#F9F9F9"/>
<path d="M469.22 409.2L483.74 417.73C491.23 422.13 492.37 428.99 488.62 435.36C485.05 441.44 478.32 444.45 470.68 439.96L456.16 431.43L458.94 426.69L473.46 435.22C478.03 437.9 481.98 436.72 484.3 432.77C486.62 428.82 485.3 425.03 480.95 422.47L466.43 413.94L469.22 409.2Z" fill="#F9F9F9"/>
<path d="M484.43 390.57C482.5 390.9 480 392.9 478.85 395.87C477.35 399.71 478.24 402.17 480.27 402.96C482.66 403.9 484.42 401.34 486.09 398.2C489.03 392.77 492.59 388.03 499.09 390.57C505.2 392.95 505.71 399.38 503.33 405.48C501.15 411.07 497.75 414.71 491.95 414.79L491.4 409.61C494.88 409.61 497.45 406.93 498.74 403.61C500.03 400.29 500.07 396.87 497.09 395.71C494.51 394.71 492.4 396.99 490.59 400.48C487.74 405.81 484.24 410.4 478.1 408C472.47 405.8 472.33 399.35 474.26 394.28C475.92 390.02 478.86 386.07 483.89 385.65L484.43 390.57Z" fill="#F9F9F9"/>
<path d="M9.48999 297.63C14.4606 297.63 18.49 293.6 18.49 288.63C18.49 283.659 14.4606 279.63 9.48999 279.63C4.51943 279.63 0.48999 283.659 0.48999 288.63C0.48999 293.6 4.51943 297.63 9.48999 297.63Z" fill="#B11917"/>
<path d="M590.51 297.63C595.481 297.63 599.51 293.6 599.51 288.63C599.51 283.659 595.481 279.63 590.51 279.63C585.539 279.63 581.51 283.659 581.51 288.63C581.51 293.6 585.539 297.63 590.51 297.63Z" fill="#B11917"/>
</svg>
